Categories:Phone & SMS,Internet
License:GPL-3.0+
Web Site:https://ring.cx/
Source Code:
Issue Tracker:https://tuleap.ring.cx/projects/ring/

Auto Name:Ring
Summary:Secure and distributed communication platform
Description:
Ring (formerly SFLphone) is a free distributed multimedia communication
software. It is developed by Savoir-faire Linux with the help of a global
community of users and contributors. Savoir-faire Linux is a Canadian company
specialized in Linux and free software.
.

Repo Type:git
Repo:https://gerrit-ring.savoirfairelinux.com/ring-project

Build:2.0.003,20
    commit=0011b9ba52b6ac3aab97a2bf42a608f83f0ec15c
    output=ring-android/app/build/outputs/apk/app-release-unsigned.apk
    build=echo -e '#!/bin/sh\ngradle "$@"' > ring-android/gradlew && \
        export ANDROID_NDK_ROOT=$ANDROID_NDK && \
        export ANDROID_ABI="armeabi-v7a" && \
        ./compile.sh release

Build:2.0.009,27
    commit=4423b10e1dd8601d00486e1b78d39180cb45f410
    subdir=ring-android/app/src/main
    output=../../build/outputs/apk/app-release-unsigned.apk
    build=pushd ../../../../ && \
        echo -e '#!/bin/sh\ngradle "$@"' > ring-android/gradlew && \
        export ANDROID_NDK_ROOT=$ANDROID_NDK && \
        export ANDROID_ABI="armeabi-v7a" && \
        ./compile.sh release && \
        popd

Build:2.0.011,29
    commit=5ec1903a9fff4f267ee7043f778c70d5b0a3be49
    subdir=ring-android/app/src/main
    output=../../build/outputs/apk/app-release-unsigned.apk
    build=pushd ../../../../ && \
        echo -e '#!/bin/sh\ngradle "$@"' > ring-android/gradlew && \
        export ANDROID_NDK_ROOT=$ANDROID_NDK && \
        export ANDROID_ABI="armeabi-v7a" && \
        ./compile.sh release && \
        popd

Build:2.0.012b,31
    commit=729d6d1f60ab3162811d6ea01100779427a42778
    subdir=ring-android/app/src/main
    output=../../build/outputs/apk/app-release-unsigned.apk
    build=pushd ../../../../ && \
        echo -e '#!/bin/sh\ngradle "$@"' > ring-android/gradlew && \
        export ANDROID_NDK_ROOT=$ANDROID_NDK && \
        export ANDROID_ABI="armeabi-v7a" && \
        ./compile.sh release && \
        popd

Build:20160315,34
    commit=d432dc26775397efbb81d99582f45dfe5e1388f7
    subdir=ring-android/app/src/main
    output=../../build/outputs/apk/app-release-unsigned.apk
    build=pushd ../../../../ && \
        echo -e '#!/bin/sh\ngradle "$@"' > ring-android/gradlew && \
        export ANDROID_NDK_ROOT=$ANDROID_NDK && \
        export ANDROID_ABI="armeabi-v7a" && \
        ./compile.sh release && \
        popd

Build:20160427,42
    disable=builds
    commit=00e089c75376e4c27536cb6a8e900b9a16466002
    subdir=ring-android/app
    output=build/outputs/apk/app-universal-release-unsigned.apk
    srclibs=ringd@HEAD
    build=sed -i -e "/MissingTranslation/adisable 'ExtraTranslation'\n" build.gradle && \
        export DAEMON_DIR=`readlink -f $$ringd$$` && \
        echo -e '#!/bin/sh\ngradle "$@"' > ../gradlew && \
        export ANDROID_NDK_ROOT=$ANDROID_NDK && \
        export ANDROID_ABI="armeabi-v7a" && \
        cd ../../ && \
        ./compile.sh release

Build:20160520,44
    commit=a0273fd0334764924b62a6dbaf1b17b45cdd1dc0
    subdir=client-android/ring-android/app
    submodules=yes
    output=build/outputs/apk/app-universal-release-unsigned.apk
    scandelete=client-windows
    build=sed -i -e "/MissingTranslation/adisable 'ExtraTranslation'\n" build.gradle && \
        ln -s ../daemon/ ../../ring-daemon && \
        echo -e '#!/bin/sh\ngradle "$@"' > ../gradlew && \
        export ANDROID_NDK_ROOT=$ANDROID_NDK && \
        export ANDROID_ABI="armeabi-v7a" && \
        cd ../../ && \
        ./compile.sh release

Build:20160526,45
    commit=e1b33489dcb8473d7163029ca5faa93e4f0f8147
    subdir=client-android/ring-android/app
    submodules=yes
    output=build/outputs/apk/app-universal-release-unsigned.apk
    scandelete=client-windows
    build=sed -i -e "/MissingTranslation/adisable 'ExtraTranslation'\n" build.gradle && \
        ln -s ../daemon/ ../../ring-daemon && \
        echo -e '#!/bin/sh\ngradle "$@"' > ../gradlew && \
        export ANDROID_NDK_ROOT=$ANDROID_NDK && \
        export ANDROID_ABI="armeabi-v7a" && \
        cd ../../ && \
        ./compile.sh release

Build:20160610,49
    commit=73cfbb9707b39dfed19753a94ba912f66c07f2b0
    subdir=client-android/ring-android/app
    submodules=yes
    output=build/outputs/apk/app-universal-release-unsigned.apk
    scandelete=client-windows
    build=sed -i -e "/MissingTranslation/adisable 'ExtraTranslation'\n" build.gradle && \
        ln -s ../daemon/ ../../ring-daemon && \
        echo -e '#!/bin/sh\ngradle "$@"' > ../gradlew && \
        export ANDROID_NDK_ROOT=$ANDROID_NDK && \
        export ANDROID_ABI="armeabi-v7a" && \
        cd ../../ && \
        ./compile.sh release

Build:20160803,50
    commit=dfb25485e747864697c9f1bb4d0ac82cd6949ca0
    subdir=client-android/ring-android/app
    submodules=yes
    output=build/outputs/apk/app-universal-release-unsigned.apk
    scandelete=client-windows
    build=sed -i -e "/MissingTranslation/adisable 'ExtraTranslation'\n" build.gradle && \
        ln -s ../daemon/ ../../ring-daemon && \
        echo -e '#!/bin/sh\ngradle "$@"' > ../gradlew && \
        export ANDROID_NDK_ROOT=$ANDROID_NDK && \
        export ANDROID_ABI="armeabi-v7a" && \
        cd ../../ && \
        ./compile.sh release

Build:20160816,52
    disable=failing build
    commit=a61de1fa5d0c16e4919eb790f37070d9c09e7274
    subdir=client-android/ring-android/app
    submodules=yes
    output=build/outputs/apk/app-universal-release-unsigned.apk
    scandelete=client-windows
    build=sed -i -e "/MissingTranslation/adisable 'ExtraTranslation'\n" build.gradle && \
        ln -s ../daemon/ ../../ring-daemon && \
        echo -e '#!/bin/sh\ngradle "$@"' > ../gradlew && \
        export ANDROID_NDK_ROOT=$ANDROID_NDK && \
        export ANDROID_ABI="armeabi-v7a" && \
        cd ../../ && \
        ./compile.sh release
    ndk=r10e

Build:20161103,53
    commit=17a06163cc94656b53bf762cefd377cdcf169db5
    subdir=client-android/ring-android/app
    submodules=yes
    output=build/outputs/apk/app-release-unsigned.apk
    scandelete=client-windows
    build=sed -i -e "/MissingTranslation/adisable 'ExtraTranslation'\n" build.gradle && \
        ln -s ../daemon/ ../../ring-daemon && \
        echo -e '#!/bin/sh\ngradle "$@"' > ../gradlew && \
        export ANDROID_NDK_ROOT=$ANDROID_NDK && \
        export ANDROID_ABI="armeabi-v7a" && \
        cd ../../ && \
        ./compile.sh release

Build:20161108,54
    commit=7b381a62fba638106e5d71137a4e3351f9324b82
    subdir=client-android/ring-android/app
    submodules=yes
    output=build/outputs/apk/app-release-unsigned.apk
    scandelete=client-windows
    build=sed -i -e "/MissingTranslation/adisable 'ExtraTranslation'\n" build.gradle && \
        ln -s ../daemon/ ../../ring-daemon && \
        echo -e '#!/bin/sh\ngradle "$@"' > ../gradlew && \
        export ANDROID_NDK_ROOT=$ANDROID_NDK && \
        export ANDROID_ABI="armeabi-v7a" && \
        cd ../../ && \
        ./compile.sh release

Build:20161123,55
    commit=3120ba5864b414f8a2d8cb606ed02fc0000f861f
    subdir=client-android/ring-android/app
    submodules=yes
    output=build/outputs/apk/app-release-unsigned.apk
    scandelete=client-windows
    build=sed -i -e "/MissingTranslation/adisable 'ExtraTranslation'\n" build.gradle && \
        ln -s ../daemon/ ../../ring-daemon && \
        echo -e '#!/bin/sh\ngradle "$@"' > ../gradlew && \
        export ANDROID_NDK_ROOT=$ANDROID_NDK && \
        export ANDROID_ABI="armeabi-v7a" && \
        cd ../../ && \
        ./compile.sh release

Build:20161130,56
    commit=3a1eecdb97e6253900122cbe68418f01e8ff7098
    subdir=client-android/ring-android/app
    submodules=yes
    output=build/outputs/apk/app-release-unsigned.apk
    scandelete=client-windows
    build=sed -i -e "/MissingTranslation/adisable 'ExtraTranslation'\n" build.gradle && \
        ln -s ../daemon/ ../../ring-daemon && \
        echo -e '#!/bin/sh\ngradle "$@"' > ../gradlew && \
        export ANDROID_NDK_ROOT=$ANDROID_NDK && \
        export ANDROID_ABI="armeabi-v7a" && \
        cd ../../ && \
        ./compile.sh release

Build:20161208,57
    commit=cea5daa40e2a60deb6e2921c4b17f80993159dc8
    subdir=client-android/ring-android/app
    submodules=yes
    output=build/outputs/apk/app-release-unsigned.apk
    scandelete=client-windows
    build=sed -i -e "/MissingTranslation/adisable 'ExtraTranslation'\n" build.gradle && \
        ln -s ../daemon/ ../../ring-daemon && \
        echo -e '#!/bin/sh\ngradle "$@"' > ../gradlew && \
        export ANDROID_NDK_ROOT=$ANDROID_NDK && \
        export ANDROID_ABI="armeabi-v7a" && \
        cd ../../ && \
        ./compile.sh release

Build:20161221,59
    commit=9b106adb72189f12b900f6ebd53330b243ba29ff
    subdir=client-android/ring-android/app
    submodules=yes
    output=build/outputs/apk/app-release-unsigned.apk
    scandelete=client-windows
    build=sed -i -e "/MissingTranslation/adisable 'ExtraTranslation'\n" build.gradle && \
        ln -s ../daemon/ ../../ring-daemon && \
        echo -e '#!/bin/sh\ngradle "$@"' > ../gradlew && \
        export ANDROID_NDK_ROOT=$ANDROID_NDK && \
        export ANDROID_ABI="armeabi-v7a" && \
        cd ../../ && \
        ./compile.sh release

Build:20170118,60
    commit=7c580b10b219d9a85c28aef8971ae4dfb251f0f2
    subdir=client-android/ring-android/app
    submodules=yes
    output=build/outputs/apk/app-release-unsigned.apk
    scandelete=client-windows
    build=sed -i -e "/MissingTranslation/adisable 'ExtraTranslation'\n" build.gradle && \
        ln -s ../daemon/ ../../ring-daemon && \
        echo -e '#!/bin/sh\ngradle "$@"' > ../gradlew && \
        export ANDROID_NDK_ROOT=$ANDROID_NDK && \
        export ANDROID_ABI="armeabi-v7a" && \
        cd ../../ && \
        ./compile.sh release

Build:20170119,61
    commit=145dca1ffff78af3a747b0b638d17f9f5be4919c
    subdir=client-android/ring-android/app
    submodules=yes
    output=build/outputs/apk/app-release-unsigned.apk
    scandelete=client-windows
    build=sed -i -e "/MissingTranslation/adisable 'ExtraTranslation'\n" build.gradle && \
        ln -s ../daemon/ ../../ring-daemon && \
        echo -e '#!/bin/sh\ngradle "$@"' > ../gradlew && \
        export ANDROID_NDK_ROOT=$ANDROID_NDK && \
        export ANDROID_ABI="armeabi-v7a" && \
        cd ../../ && \
        ./compile.sh release

Build:20170126,63
    commit=7e082b66c98a3df55c8ed11e7d21ec6553d8eccd
    subdir=client-android/ring-android/app
    submodules=yes
    output=build/outputs/apk/app-release-unsigned.apk
    scandelete=client-windows
    build=sed -i -e "/MissingTranslation/adisable 'ExtraTranslation'\n" build.gradle && \
        ln -s ../daemon/ ../../ring-daemon && \
        echo -e '#!/bin/sh\ngradle "$@"' > ../gradlew && \
        export ANDROID_NDK_ROOT=$ANDROID_NDK && \
        export ANDROID_ABI="armeabi-v7a" && \
        cd ../../ && \
        ./compile.sh release

Build:20170201,64
    commit=23df36fae57192b7232e27dda7ca2bbcdefde9da
    subdir=client-android/ring-android/app
    submodules=yes
    output=build/outputs/apk/app-release-unsigned.apk
    scandelete=client-windows,client-uwp
    build=sed -i -e "/MissingTranslation/adisable 'ExtraTranslation'\n" build.gradle && \
        ln -s ../daemon/ ../../ring-daemon && \
        echo -e '#!/bin/sh\ngradle "$@"' > ../gradlew && \
        export ANDROID_NDK_ROOT=$ANDROID_NDK && \
        export ANDROID_ABI="armeabi-v7a" && \
        cd ../../ && \
        ./compile.sh release

Build:20170215,65
    commit=aa120c7551773cba8aebea291c3093fc92c5d3da
    subdir=client-android/ring-android/app
    submodules=yes
    output=build/outputs/apk/app-release-unsigned.apk
    scandelete=client-windows,client-uwp
    build=sed -i -e "/MissingTranslation/adisable 'ExtraTranslation'\n" build.gradle && \
        ln -s ../daemon/ ../../ring-daemon && \
        echo -e '#!/bin/sh\ngradle "$@"' > ../gradlew && \
        export ANDROID_NDK_ROOT=$ANDROID_NDK && \
        export ANDROID_ABI="armeabi-v7a" && \
        cd ../../ && \
        ./compile.sh release

Build:20170301,68
    disable=builds locally, but not on server
    commit=edd2c13863d66caad036a4961541f2d96cb0e024
    subdir=client-android/ring-android/app
    submodules=yes
    output=build/outputs/apk/app-release-unsigned.apk
    scandelete=client-windows,client-uwp
    build=sed -i -e "/MissingTranslation/adisable 'ExtraTranslation'\n" build.gradle && \
        ln -s ../daemon/ ../../ring-daemon && \
        echo -e '#!/bin/sh\ngradle "$@"' > ../gradlew && \
        export ANDROID_NDK_ROOT=$ANDROID_NDK && \
        export ANDROID_ABI="armeabi-v7a" && \
        cd ../../ && \
        ./compile.sh release

Build:20170303,69
    disable=builds locally, but not on server
    commit=712dd41b1d6773104b6194f16a00e17f6a91f032
    subdir=client-android/ring-android/app
    submodules=yes
    output=build/outputs/apk/app-release-unsigned.apk
    scandelete=client-windows,client-uwp
    build=sed -i -e "/MissingTranslation/adisable 'ExtraTranslation'\n" build.gradle && \
        ln -s ../daemon/ ../../ring-daemon && \
        echo -e '#!/bin/sh\ngradle "$@"' > ../gradlew && \
        export ANDROID_NDK_ROOT=$ANDROID_NDK && \
        export ANDROID_ABI="armeabi-v7a" && \
        cd ../../ && \
        ./compile.sh release

Build:20170315,70
    disable=builds locally, but not on server
    commit=06a3f0b740bd42e6de998964ae8c7f135990c6fe
    subdir=client-android/ring-android/app
    submodules=yes
    output=build/outputs/apk/app-release-unsigned.apk
    scandelete=client-windows,client-uwp
    build=sed -i -e "/MissingTranslation/adisable 'ExtraTranslation'\n" build.gradle && \
        ln -s ../daemon/ ../../ring-daemon && \
        echo -e '#!/bin/sh\ngradle "$@"' > ../gradlew && \
        export ANDROID_NDK_ROOT=$ANDROID_NDK && \
        export ANDROID_ABI="armeabi-v7a" && \
        cd ../../ && \
        ./compile.sh release

Build:20170322,71
    disable=builds locally, but not on server
    commit=ec25f0f76680d09945ccade2b796f2b0566db26c
    subdir=client-android/ring-android/app
    submodules=yes
    output=build/outputs/apk/app-release-unsigned.apk
    scandelete=client-windows,client-uwp
    build=sed -i -e "/MissingTranslation/adisable 'ExtraTranslation'\n" build.gradle && \
        ln -s ../daemon/ ../../ring-daemon && \
        echo -e '#!/bin/sh\ngradle "$@"' > ../gradlew && \
        export ANDROID_NDK_ROOT=$ANDROID_NDK && \
        export ANDROID_ABI="armeabi-v7a" && \
        cd ../../ && \
        ./compile.sh release

Build:20170329,72
    disable=builds locally, but not on server
    commit=0eecf3dea3c5322b24ca483f1ce8e62b3f9262dc
    subdir=client-android/ring-android/app
    submodules=yes
    output=build/outputs/apk/app-release-unsigned.apk
    scandelete=client-windows,client-uwp
    build=sed -i -e "/MissingTranslation/adisable 'ExtraTranslation'\n" build.gradle && \
        ln -s ../daemon/ ../../ring-daemon && \
        echo -e '#!/bin/sh\ngradle "$@"' > ../gradlew && \
        export ANDROID_NDK_ROOT=$ANDROID_NDK && \
        export ANDROID_ABI="armeabi-v7a" && \
        cd ../../ && \
        ./compile.sh release

Build:20170405,73
    disable=builds locally, but not on server
    commit=d0ef36345e6dcdea1172d482ee287492effa25f3
    subdir=client-android/ring-android/app
    submodules=yes
    output=build/outputs/apk/app-release-unsigned.apk
    scandelete=client-windows,client-uwp
    build=sed -i -e "/MissingTranslation/adisable 'ExtraTranslation'\n" build.gradle && \
        ln -s ../daemon/ ../../ring-daemon && \
        echo -e '#!/bin/sh\ngradle "$@"' > ../gradlew && \
        export ANDROID_NDK_ROOT=$ANDROID_NDK && \
        export ANDROID_ABI="armeabi-v7a" && \
        cd ../../ && \
        ./compile.sh release

Build:20170412,74
    disable=builds locally, but not on server... ndk issue?
    commit=f0ec0251155c602b94d91909b5430f9953413b82
    subdir=client-android/ring-android/app
    submodules=yes
    output=build/outputs/apk/app-release-unsigned.apk
    scandelete=client-windows,client-uwp
    build=sed -i -e "/MissingTranslation/adisable 'ExtraTranslation'\n" build.gradle && \
        ln -s ../daemon/ ../../ring-daemon && \
        echo -e '#!/bin/sh\ngradle "$@"' > ../gradlew && \
        export ANDROID_NDK_ROOT=$ANDROID_NDK && \
        export ANDROID_ABI="armeabi-v7a" && \
        cd ../../ && \
        ./compile.sh release

Build:20170501,76
    disable=builds locally, but not on server...
    commit=628969d1bd199ccfcbcfbf4aae146fb261f4c6db
    subdir=client-android/ring-android/app
    submodules=yes
    output=build/outputs/apk/app-release-unsigned.apk
    scandelete=client-windows,client-uwp
    build=sed -i -e "/MissingTranslation/adisable 'ExtraTranslation'\n" build.gradle && \
        ln -s ../daemon/ ../../ring-daemon && \
        echo -e '#!/bin/sh\ngradle "$@"' > ../gradlew && \
        export ANDROID_NDK_ROOT=$ANDROID_NDK && \
        export ANDROID_ABI="armeabi-v7a" && \
        cd ../../ && \
        ./compile.sh release
    ndk=r14

Build:20170516,78
    commit=fc2d83c
    subdir=client-android/ring-android/app
    submodules=yes
    output=build/outputs/apk/app-release-unsigned.apk
    scandelete=client-windows,client-uwp
    build=sed -i -e "/MissingTranslation/adisable 'ExtraTranslation'\n" build.gradle && \
        ln -s ../daemon/ ../../ring-daemon && \
        echo -e '#!/bin/sh\ngradle "$@"' > ../gradlew && \
        export ANDROID_NDK_ROOT=$ANDROID_NDK && \
        export ANDROID_ABI="armeabi-v7a" && \
        cd ../../ && \
        ./compile.sh release
    ndk=r14

Auto Update Mode:None
Update Check Mode:RepoManifest/production
Current Version:20170516
Current Version Code:78
